"LIBRARYREFERENCE","FOOTPRINT1","COMMENT","SUPPLIER 1","SUPPLIER 2","SUPPLIER 3","SUPPLIER 4","SUPPLIER PART NUMBER 1","SUPPLIER PART NUMBER 2","SUPPLIER PART NUMBER 3","SUPPLIER PART NUMBER 4","SHEETPART","DESIGNATOR","DESCRIPTION"
"AD","Header 6x1 8.5mm","*","Arrow","Arrow","Digi-Key","Newark","52553843","2699089","SAM1198-06-ND","11P8269","*","*",""
"AD_H","Header 8x1 8.5mm","*","Arrow","Digi-Key","Newark","Arrow","","","","","*","*",""
"AD_L","Header 8x1 8.5mm","*","Arrow","Arrow","Newark","Digi-Key","","","","","*","*",""
"Communication","Header 8x1 8.5mm","*","Arrow","Digi-Key","Arrow","","2698925","SAM1198-08-ND","2698940","","*","*",""
"DISP","HEADER_6x2.54_LOCKED","*","","","","","","","","","*","*",""
"ICSP","ICSP","*","Digi-Key","Arrow","Arrow","","SAM1185-03-ND","2699340","46091550","","*","*",""
"IOH","Header 10x1 8.5mm","*","Arrow","Arrow","Digi-Key","","2698789","2698803S4475693N1004","SAM1198-10-ND","","*","*",""
"IOL","Header 8x1 8.5mm","*","Arrow","Arrow","Digi-Key","","2698925","2698940","SAM1198-08-ND","","*","*",""
"IO_36","HEADER 36X 8MM","*","Arrow","Digi-Key","Arrow","","2697470","SAM1198-36-ND","2697486","","*","*",""
"POWER","Header 6x1 8.5mm","*","Arrow","Arrow","Newark","Digi-Key","2699075","2699089","11P8269","SAM1198-06-ND","*","*",""
"POWER_UNO","Header 8x1 8.5mm","*","Arrow","Digi-Key","Arrow","","2698925","SAM1198-08-ND","2698940","","*","*",""
"PWM_H","Header 8x1 8.5mm","*","Arrow","Arrow","Digi-Key","","2698925","2698940","SAM1198-08-ND","","*","*",""
"PWM_L","Header 8x1 8.5mm","*","Arrow","Arrow","Digi-Key","","","","","","*","*",""
"SENS","HEADER_4x2.54_LOCK","*","","","","","","","","","*","*",""
