Removed Pin From Net: NetName=SW1 Pin=SW1-1
Removed Pin From Net: NetName=GND Pin=SW1-2
Removed Pin From Net: NetName=SW1 Pin=SW1-3
Removed Pin From Net: NetName=GND Pin=SW1-4
Removed Pin From Net: NetName=SW2 Pin=SW2-1
Removed Pin From Net: NetName=GND Pin=SW2-2
Removed Pin From Net: NetName=SW2 Pin=SW2-3
Removed Pin From Net: NetName=GND Pin=SW2-4
Added Component: Designator=R1(AXIAL-0.3)
Added Component: Designator=R2(AXIAL-0.3)
Added Pin To Net: NetName=SW1 Pin=R1-1
Added Pin To Net: NetName=GND Pin=R1-2
Added Pin To Net: NetName=SW2 Pin=R2-1
Added Pin To Net: NetName=GND Pin=R2-2
Added Pin To Net: NetName=5V Pin=SW1-1
Added Pin To Net: NetName=SW1 Pin=SW1-2
Added Pin To Net: NetName=5V Pin=SW1-3
Added Pin To Net: NetName=SW1 Pin=SW1-4
Added Pin To Net: NetName=5V Pin=SW2-1
Added Pin To Net: NetName=SW2 Pin=SW2-2
Added Pin To Net: NetName=5V Pin=SW2-3
Added Pin To Net: NetName=SW2 Pin=SW2-4
Added Member To Class: ClassName=MainPlate Member=Component R1 Res1
Added Member To Class: ClassName=MainPlate Member=Component R2 Res1
