Removed Pin From Net: NetName=SW1 Pin=DIGITAL-30
Removed Pin From Net: NetName=SW2 Pin=DIGITAL-34
Added Component: Designator=SW1.1(HEADER_2x2.54_LOCK)
Added Component: Designator=SW2.1(HEADER_2x2.54_LOCK)
Added Pin To Net: NetName=SW2 Pin=COMMS-7
Added Pin To Net: NetName=SW1 Pin=COMMS-8
Added Pin To Net: NetName=5V Pin=SW1.1-0
Added Pin To Net: NetName=SW1 Pin=SW1.1-1
Added Pin To Net: NetName=5V Pin=SW2.1-0
Added Pin To Net: NetName=SW2 Pin=SW2.1-1
Added Pin To Net: NetName=IO49 Pin=DIGITAL-30
Added Net: Name=IO49
Added Pin To Net: NetName=IO53 Pin=DIGITAL-34
Added Net: Name=IO53
Added Member To Class: ClassName=MainPlate Member=Component SW1.1 HEADER_2x2.56_LOCK
Added Member To Class: ClassName=MainPlate Member=Component SW2.1 HEADER_2x2.56_LOCK
